<TABLE WIDTH="100%" BORDER=0 CELLPADDING=7 CELLSPACING=0>
	<TR>
		<TD  class=standart_text>
			<h3>Контакты</h3>
<p><img src="images/contacts.png" width="367" height="32" alt=""></p>
<p><b>Для связи с Вашим менеджером используйте форму обратной связи:</b></p>
<p>
%form%
</p>
			
		</TD>
	</TR>
</TABLE>